<?xml version="1.0" encoding="UTF-8" standalone="no"?>
<!-- Created with Inkscape (http://www.inkscape.org/) -->

<svg
   xmlns:dc="http://purl.org/dc/elements/1.1/"
   xmlns:cc="http://creativecommons.org/ns#"
   xmlns:rdf="http://www.w3.org/1999/02/22-rdf-syntax-ns#"
   xmlns:svg="http://www.w3.org/2000/svg"
   xmlns="http://www.w3.org/2000/svg"
   xmlns:xlink="http://www.w3.org/1999/xlink"
   xmlns:sodipodi="http://sodipodi.sourceforge.net/DTD/sodipodi-0.dtd"
   xmlns:inkscape="http://www.inkscape.org/namespaces/inkscape"
   width="50"
   height="50"
   viewBox="0 0 49.999997 49.999997"
   id="svg5217"
   version="1.1"
   inkscape:version="0.91 r13725"
   sodipodi:docname="asteroidMetal.svg"
   inkscape:export-filename="asteroidMetal.png"
   inkscape:export-xdpi="90"
   inkscape:export-ydpi="90">
  <defs
     id="defs5219">
    <linearGradient
       inkscape:collect="always"
       id="linearGradient4698">
      <stop
         style="stop-color:#5fbcff;stop-opacity:1;"
         offset="0"
         id="stop4700" />
      <stop
         style="stop-color:#5fbcff;stop-opacity:0;"
         offset="1"
         id="stop4702" />
    </linearGradient>
    <radialGradient
       inkscape:collect="always"
       xlink:href="#linearGradient4698"
       id="radialGradient4704"
       cx="24.910713"
       cy="1027.3622"
       fx="24.910713"
       fy="1027.3622"
       r="41.760713"
       gradientTransform="matrix(0.72051652,-7.4007297e-7,7.3719651e-7,0.71838282,8.0506592,289.32294)"
       gradientUnits="userSpaceOnUse" />
  </defs>
  <sodipodi:namedview
     id="base"
     pagecolor="#ffffff"
     bordercolor="#666666"
     borderopacity="1.0"
     inkscape:pageopacity="0.0"
     inkscape:pageshadow="2"
     inkscape:zoom="11.2"
     inkscape:cx="11.294545"
     inkscape:cy="36.002131"
     inkscape:document-units="px"
     inkscape:current-layer="layer1"
     showgrid="true"
     units="px"
     inkscape:snap-object-midpoints="true"
     inkscape:window-width="1857"
     inkscape:window-height="1057"
     inkscape:window-x="1421"
     inkscape:window-y="-8"
     inkscape:window-maximized="1">
    <inkscape:grid
       type="xygrid"
       id="grid5767" />
  </sodipodi:namedview>
  <metadata
     id="metadata5222">
    <rdf:RDF>
      <cc:Work
         rdf:about="">
        <dc:format>image/svg+xml</dc:format>
        <dc:type
           rdf:resource="http://purl.org/dc/dcmitype/StillImage" />
        <dc:title />
      </cc:Work>
    </rdf:RDF>
  </metadata>
  <g
     inkscape:label="Layer 1"
     inkscape:groupmode="layer"
     id="layer1"
     transform="translate(0,-1002.3622)">
    <ellipse
       style="fill:url(#radialGradient4704);fill-opacity:1;fill-rule:nonzero;stroke:none;stroke-width:3.70000005;stroke-linecap:round;stroke-linejoin:round;stroke-miterlimit:4;stroke-dasharray:none;stroke-dashoffset:0;stroke-opacity:1"
       id="path4696"
       ry="29.999983"
       rx="29.999996"
       cy="1027.3622"
       cx="25.999996" />
    <path
       style="fill:#7e7e7e;fill-rule:evenodd;stroke:#b0b0b0;stroke-width:1px;stroke-linecap:butt;stroke-linejoin:miter;stroke-opacity:1;fill-opacity:1"
       d="m 4,1023.3622 c -1,-6 0.00362,-12.0072 2,-11 2.0008604,1.0095 8.834715,1.7176 9.607143,-0.7857 C 15.90199,1010.6209 22,1005.3622 23,1005.3622 c 1,0 12,-3 14,-1 2,2 1.053572,8.5714 2.053572,11.5714 1,3 5.946428,12.4286 3.946428,14.4286 -2,2 -6,7 -4,11 2,4 0,8 -4,8 -4,0 -8.293771,-2.6936 -12.821429,-5.7679 -9.178573,-6.2321 -1.107804,-5.2367 -5.375,-10.6071 -0.879785,-1.1072 -6.8035722,-1.625 -8.4285715,-3.8393 C 6.3247969,1026.3542 4.6126789,1027.0383 4,1023.3622 Z"
       id="path5814"
       inkscape:connector-curvature="0"
       sodipodi:nodetypes="sssssssssssss" />
    <path
       style="fill:#407abb;fill-opacity:1;fill-rule:evenodd;stroke:#b0b0b0;stroke-width:1px;stroke-linecap:butt;stroke-linejoin:miter;stroke-opacity:1"
       d="m 16.353533,1023.9236 c 2.000002,1 5.69448,-1.5152 7.69448,-1.5152 2,0 2.30552,3.5152 2.30552,5.5152 0,2 -2,6 0,8 2,2 -3,3 -4,2 -1,-1 -1.000003,-7 -1.916561,-8.5581 -0.916558,-1.558 -9.08344,-1.4419 -9.250318,-3.7576 -0.166877,-2.3156 3.166877,-2.6843 5.166879,-1.6843 z"
       id="path6375"
       inkscape:connector-curvature="0"
       sodipodi:nodetypes="zzzzzzzz" />
    <path
       style="fill:#407abb;fill-opacity:1;fill-rule:evenodd;stroke:#b0b0b0;stroke-width:1px;stroke-linecap:butt;stroke-linejoin:miter;stroke-opacity:1"
       d="m 28.278025,1007.7037 c 2.000002,1 3.878916,-0.5219 5.800443,0.5683 1.921528,1.0902 -3.69226,2.8838 -3.69226,4.8838 0,2 3.050762,0.5073 5.050762,2.5073 2,2 -1.169098,5.2729 -2.169097,4.2729 -1,-1 -3.904192,0.3867 -4.82075,-1.1714 -0.916558,-1.558 -7.378806,-4.5986 -7.545684,-6.9143 -0.166877,-2.3156 5.376585,-5.1466 7.376586,-4.1466 z"
       id="path6375-6"
       inkscape:connector-curvature="0"
       sodipodi:nodetypes="zzzzzzzz" />
    <path
       style="fill:#407abb;fill-opacity:1;fill-rule:evenodd;stroke:#b0b0b0;stroke-width:1px;stroke-linecap:butt;stroke-linejoin:miter;stroke-opacity:1"
       d="m 35.212742,1039.9459 c -0.126963,2.2324 1.173157,4.1035 -0.632596,4.5949 -1.805753,0.4914 -6.539417,-2.9134 -2.615233,-6.7592 3.924184,-3.8459 3.374793,-0.068 3.247829,2.1643 z"
       id="path6375-6-7"
       inkscape:connector-curvature="0"
       sodipodi:nodetypes="zzzz" />
  </g>
</svg>
