<?xml version="1.0" encoding="UTF-8" standalone="no"?>
<!-- Created with Inkscape (http://www.inkscape.org/) -->

<svg
   xmlns:dc="http://purl.org/dc/elements/1.1/"
   xmlns:cc="http://creativecommons.org/ns#"
   xmlns:rdf="http://www.w3.org/1999/02/22-rdf-syntax-ns#"
   xmlns:svg="http://www.w3.org/2000/svg"
   xmlns="http://www.w3.org/2000/svg"
   xmlns:sodipodi="http://sodipodi.sourceforge.net/DTD/sodipodi-0.dtd"
   xmlns:inkscape="http://www.inkscape.org/namespaces/inkscape"
   width="81.000008"
   height="50.999973"
   viewBox="0 0 81.000003 50.99997"
   id="svg5217"
   version="1.1"
   inkscape:version="0.91 r13725"
   sodipodi:docname="bluecircle.svg"
   inkscape:export-filename="bluecircle.png"
   inkscape:export-xdpi="90"
   inkscape:export-ydpi="90">
  <defs
     id="defs5219" />
  <sodipodi:namedview
     id="base"
     pagecolor="#ffffff"
     bordercolor="#666666"
     borderopacity="1.0"
     inkscape:pageopacity="0.0"
     inkscape:pageshadow="2"
     inkscape:zoom="5.6"
     inkscape:cx="-24.531695"
     inkscape:cy="22.0678"
     inkscape:document-units="px"
     inkscape:current-layer="layer1"
     showgrid="true"
     units="px"
     inkscape:snap-object-midpoints="true"
     inkscape:window-width="1857"
     inkscape:window-height="1057"
     inkscape:window-x="1421"
     inkscape:window-y="-8"
     inkscape:window-maximized="1"
     fit-margin-top="0"
     fit-margin-left="0"
     fit-margin-right="0"
     fit-margin-bottom="0">
    <inkscape:grid
       type="xygrid"
       id="grid5767"
       originx="15.500001"
       originy="0.49997144" />
  </sodipodi:namedview>
  <metadata
     id="metadata5222">
    <rdf:RDF>
      <cc:Work
         rdf:about="">
        <dc:format>image/svg+xml</dc:format>
        <dc:type
           rdf:resource="http://purl.org/dc/dcmitype/StillImage" />
        <dc:title></dc:title>
      </cc:Work>
    </rdf:RDF>
  </metadata>
  <g
     inkscape:label="Layer 1"
     inkscape:groupmode="layer"
     id="layer1"
     transform="translate(15.5,-1001.8622)">
    <ellipse
       style="fill:#3737fd;fill-opacity:1;stroke:#0374f0;stroke-opacity:1"
       id="path5225"
       cx="24.999996"
       cy="1027.3622"
       rx="24.999996"
       ry="24.999983" />
    <path
       style="fill:#9494a4;fill-opacity:1;fill-rule:evenodd;stroke:none;stroke-width:1px;stroke-linecap:butt;stroke-linejoin:miter;stroke-opacity:1"
       d="m -15,1037.5408 0,-20.1786 10,0 0,5 60,0 0,-5 10,0 0,20 -10,0 0,-5 -60,0.1786 0,5 z"
       id="path11927"
       inkscape:connector-curvature="0"
       transform="translate(-2.9802319e-6,-2.9802318e-6)"
       sodipodi:nodetypes="ccccccccccccc" />
    <circle
       style="fill:#bdbdc7;fill-opacity:1;stroke:none;stroke-opacity:1"
       id="path11929"
       cx="25"
       cy="1027.3622"
       r="10" />
    <path
       style="fill:none;fill-opacity:1;fill-rule:evenodd;stroke:#d2d6dc;stroke-width:1px;stroke-linecap:butt;stroke-linejoin:miter;stroke-opacity:1"
       d="m -15,15 0,20.177734 10,0 0,-5 21.419922,-0.0625 A 10.000001,10.000001 0 0 0 25,35 10.000001,10.000001 0 0 0 33.611328,30.0625 L 55,30 l 0,5 10,0 0,-20 -10,0 0,5 -21.355469,0 A 10.000001,10.000001 0 0 0 25,15 10.000001,10.000001 0 0 0 16.349609,20 L -5,20 l 0,-5 -10,0 z"
       transform="translate(0,1002.3622)"
       id="path11931"
       inkscape:connector-curvature="0" />
  </g>
</svg>
