<?xml version="1.0" encoding="UTF-8" standalone="no"?>
<!-- Created with Inkscape (http://www.inkscape.org/) -->

<svg
   xmlns:dc="http://purl.org/dc/elements/1.1/"
   xmlns:cc="http://creativecommons.org/ns#"
   xmlns:rdf="http://www.w3.org/1999/02/22-rdf-syntax-ns#"
   xmlns:svg="http://www.w3.org/2000/svg"
   xmlns="http://www.w3.org/2000/svg"
   xmlns:xlink="http://www.w3.org/1999/xlink"
   xmlns:sodipodi="http://sodipodi.sourceforge.net/DTD/sodipodi-0.dtd"
   xmlns:inkscape="http://www.inkscape.org/namespaces/inkscape"
   width="5"
   height="5"
   viewBox="0 0 5.0000001 5.0000001"
   id="svg7038"
   version="1.1"
   inkscape:version="0.91 r13725"
   sodipodi:docname="blueLaserBeam.svg"
   inkscape:export-filename="C:\Users\Public\Documents\Unity Projects\LD39\unityproject\LD39\Assets\blueLaserBeam.png"
   inkscape:export-xdpi="90"
   inkscape:export-ydpi="90">
  <defs
     id="defs7040">
    <linearGradient
       id="linearGradient12490"
       inkscape:collect="always">
      <stop
         id="stop12492"
         offset="0"
         style="stop-color:#006dea;stop-opacity:1" />
      <stop
         id="stop12494"
         offset="1"
         style="stop-color:#00c9ea;stop-opacity:0" />
    </linearGradient>
    <linearGradient
       inkscape:collect="always"
       id="linearGradient7590">
      <stop
         style="stop-color:#006dea;stop-opacity:1"
         offset="0"
         id="stop7592" />
      <stop
         style="stop-color:#00c9ea;stop-opacity:0"
         offset="1"
         id="stop7594" />
    </linearGradient>
    <linearGradient
       inkscape:collect="always"
       xlink:href="#linearGradient7590"
       id="linearGradient7598"
       x1="0"
       y1="1050.3622"
       x2="2.0000002"
       y2="1050.3622"
       gradientUnits="userSpaceOnUse"
       gradientTransform="translate(2.9999998,5.39425e-5)" />
    <linearGradient
       inkscape:collect="always"
       xlink:href="#linearGradient12490"
       id="linearGradient7598-0"
       x1="0"
       y1="1050.3622"
       x2="2.0000002"
       y2="1050.3622"
       gradientUnits="userSpaceOnUse"
       gradientTransform="translate(-2.0000002,1.1738281e-4)" />
  </defs>
  <sodipodi:namedview
     id="base"
     pagecolor="#ffffff"
     bordercolor="#666666"
     borderopacity="1.0"
     inkscape:pageopacity="0.0"
     inkscape:pageshadow="2"
     inkscape:zoom="89.6"
     inkscape:cx="3.2962577"
     inkscape:cy="2.4485085"
     inkscape:document-units="px"
     inkscape:current-layer="layer1"
     showgrid="true"
     units="px"
     inkscape:object-nodes="true"
     inkscape:window-width="1857"
     inkscape:window-height="1057"
     inkscape:window-x="1421"
     inkscape:window-y="-8"
     inkscape:window-maximized="1">
    <inkscape:grid
       type="xygrid"
       id="grid7046" />
  </sodipodi:namedview>
  <metadata
     id="metadata7043">
    <rdf:RDF>
      <cc:Work
         rdf:about="">
        <dc:format>image/svg+xml</dc:format>
        <dc:type
           rdf:resource="http://purl.org/dc/dcmitype/StillImage" />
        <dc:title />
      </cc:Work>
    </rdf:RDF>
  </metadata>
  <g
     inkscape:label="Layer 1"
     inkscape:groupmode="layer"
     id="layer1"
     transform="translate(0,-1047.3622)">
    <g
       id="g12499"
       transform="matrix(0,1,-1,0,1052.3622,1047.3622)">
      <rect
         y="1047.3622"
         x="3"
         height="5.0000172"
         width="2"
         id="rect7048"
         style="fill:url(#linearGradient7598);fill-opacity:1;stroke:none;stroke-width:1;stroke-linecap:round;stroke-miterlimit:4;stroke-dasharray:none;stroke-opacity:1" />
      <rect
         transform="scale(-1,1)"
         y="1047.3622"
         x="-2"
         height="5.0000172"
         width="2"
         id="rect7048-8"
         style="fill:url(#linearGradient7598-0);fill-opacity:1;stroke:none;stroke-width:1;stroke-linecap:round;stroke-miterlimit:4;stroke-dasharray:none;stroke-opacity:1" />
      <rect
         transform="scale(-1,1)"
         y="1047.3622"
         x="-3"
         height="5.0000172"
         width="1"
         id="rect7048-8-4"
         style="fill:#52a1ff;fill-opacity:1;stroke:none;stroke-width:1;stroke-linecap:round;stroke-miterlimit:4;stroke-dasharray:none;stroke-opacity:1" />
    </g>
  </g>
</svg>
